
#      +---------+---------+
#      |         |         |
#      |   AIR   |   AIR   |
#      |         |         |
#      +---------+---------+

  FLUID    AIR        1.177  1006         300      UNKNOWN       FRONT cube_1.stl FRONT cube_2.stl