
#      +---------+         +---------+
#      |         |         |         |
#      |    AL   |         |   AL    |
#      |         |         |         |
#      +---------+         +---------+

  SOLID     AL   237   2700   890    0.07     300     UNKNOWN     0         FRONT cube_1.stl FRONT cube_3.stl