
#      +----1----+         +----1----+
#      |         |         |         |
#      1    AL   1         1   AL    1
#      |         |         |         |
#      +----1----+         +----1----+
#
# 1: T_BOUNDARY_FOR_SOLID

  T_BOUNDARY_FOR_SOLID     CL1   300  cube_1.stl cube_3.stl
  