
#      +----1----+----1----+
#      |         |         | 
#      1   AIR   2   AIR   1 
#      |         |         |
#      +----1----+----1----+
#
# 1: H_BOUNDARY_FOR_FLUID
# 2: ERROR: undefined connection between two fluids

  H_BOUNDARY_FOR_FLUID     CL1   300  1  0   5  300  cube_1_ext.stl cube_2_ext.stl cube_2_3.stl
